{"status":"success","data":{"source":"local","trace_id":"58277312e737940d52160a3192a818d1","sort":"largest","pagination":{"limit":25,"offset":0,"total_items":384,"has_next":true,"next_offset":25},"payloads":[{"payload_id":"observation:1e7e8cedbf7a2165:metadata.event_payload","trace_id":"58277312e737940d52160a3192a818d1","scope":"observation","source_id":"1e7e8cedbf7a2165","observation_id":"1e7e8cedbf7a2165","field":"metadata.event_payload","name":"extraction_trace_event","kind":"event","observation_type":"EVENT","parent_observation_id":"5048b6076dc6cf42","start_time":"2026-06-06 23:18:20.540000+00:00","char_count":9733,"byte_count":9733,"rough_token_estimate":2434,"sha256":"e62fda355e288acb4382afd53fb0df6bae7dffaa6f5b11bda764d8fe3459901d","preview":"{\"domain_pack_id\": \"gene\", \"event_id\": \"evt-6c431368d5a2442189c1b6c5176195a5\", \"event_size\": {\"estimated_tokens\": 2304, \"json_bytes\": 9214, \"json_chars\": 9214}, \"event_type\": \"gene_materializer.completed\", \"input_summary\": {\"bounded\": true, \"preview\": {\"candidate_ids\": [\"gene-candidate-1\"]}, \"preview_length\": 39, \"size\": {\"estimated_tokens\": 10, \"json_bytes\": 38, \"json_chars\": 38, \"kind\": \"object\", \"top_level_keys\": 1}}, \"metadata\": {\"action\": \"materialize\", \"builder_run_id\": \"58277312e737940d52","truncated_preview":true},{"payload_id":"observation:e815ad073f29df3d:metadata.event_payload","trace_id":"58277312e737940d52160a3192a818d1","scope":"observation","source_id":"e815ad073f29df3d","observation_id":"e815ad073f29df3d","field":"metadata.event_payload","name":"extraction_trace_event","kind":"event","observation_type":"EVENT","parent_observation_id":"5048b6076dc6cf42","start_time":"2026-06-06 23:18:08.390000+00:00","char_count":8806,"byte_count":8810,"rough_token_estimate":2202,"sha256":"1b8235adc4d46c7dd046c707f81833e5e5917ba16e854664ce956c46c640a656","preview":"{\"domain_pack_id\": null, \"event_id\": \"evt-5a8a0cac945148098be0d02ab6b9050e\", \"event_size\": {\"estimated_tokens\": 2141, \"json_bytes\": 8564, \"json_chars\": 8564}, \"event_type\": \"specialist_tool_call.completed\", \"input_summary\": {\"bounded\": true, \"preview\": {\"durationMs\": 1138, \"friendlyName\": \"Dev Release Smoke Agent 2a16977d: Search Document complete\", \"isSpecialistInternal\": true, \"success\": true, \"toolCallId\": \"fc_0166a31c67b1fca5006a24aaaf152481a2ba05c681567ca919\", \"toolName\": \"search_document\"}","truncated_preview":true},{"payload_id":"observation:2c4140cdf813b3d8:metadata.event_payload","trace_id":"58277312e737940d52160a3192a818d1","scope":"observation","source_id":"2c4140cdf813b3d8","observation_id":"2c4140cdf813b3d8","field":"metadata.event_payload","name":"extraction_trace_event","kind":"event","observation_type":"EVENT","parent_observation_id":"5048b6076dc6cf42","start_time":"2026-06-06 23:18:10.793000+00:00","char_count":8422,"byte_count":8424,"rough_token_estimate":2106,"sha256":"42e95a30e4349563f90138d7f85e633d3501d138d1cef0e779ca0c605ee0ea1c","preview":"{\"domain_pack_id\": null, \"event_id\": \"evt-7f6b290f717c40dc966ef31c84f944d2\", \"event_size\": {\"estimated_tokens\": 2013, \"json_bytes\": 8049, \"json_chars\": 8049}, \"event_type\": \"specialist_tool_call.completed\", \"input_summary\": {\"bounded\": true, \"preview\": {\"durationMs\": 349, \"friendlyName\": \"Dev Release Smoke Agent 2a16977d: Read Chunk complete\", \"isSpecialistInternal\": true, \"success\": true, \"toolCallId\": \"fc_0166a31c67b1fca5006a24aab26a1c81a29cad0f37e3b43a15\", \"toolName\": \"read_chunk\"}, \"preview_","truncated_preview":true},{"payload_id":"observation:21074209e9087f4d:output","trace_id":"58277312e737940d52160a3192a818d1","scope":"observation","source_id":"21074209e9087f4d","observation_id":"21074209e9087f4d","field":"output","name":"search_document","kind":"tool","observation_type":"TOOL","parent_observation_id":"d9ecfcac743c5d69","start_time":"2026-06-06 23:18:07.429000+00:00","char_count":7908,"byte_count":7913,"rough_token_estimate":1977,"sha256":"3c55c50d8db096024cc9a696c2c36eba8cd3fea1837920caeada32e6adf7f39f","preview":"summary='Found 5 chunks' hits=[ChunkHit(chunk_id='47a98a8e-c321-72b5-73ba-de2925953472', section_title='Results and Discussion > Linking Phenotype to Genotype through Molecular Abundance of Eye Proteins', page_number=1, score=0.8427728414535522, content=' names are color-coded to indicate their subcellular association. Stoichiometries were calculated using the fmole/cell amounts of proteins except for Arr1, Arr2, and Actin5C where fmole/eye were used.We next applied MS Western to quantify protei","truncated_preview":true},{"payload_id":"observation:0e7c59fb2099a75d:output","trace_id":"58277312e737940d52160a3192a818d1","scope":"observation","source_id":"0e7c59fb2099a75d","observation_id":"0e7c59fb2099a75d","field":"output","name":"read_chunk","kind":"tool","observation_type":"TOOL","parent_observation_id":"d9ecfcac743c5d69","start_time":"2026-06-06 23:18:10.721000+00:00","char_count":6869,"byte_count":6871,"rough_token_estimate":1718,"sha256":"a615f5a6a2f15a53d89579cf90bc1bbb7cd7957489d5ebaf7e938080f40b49b2","preview":"summary=\"Read chunk '17c89c9a-1efb-38ea-1574-9ec1c58ea444' from page 1. Select evidence_spans[].span_id for record_evidence.\" chunk=ChunkReadContent(chunk_id='17c89c9a-1efb-38ea-1574-9ec1c58ea444', chunk_index=29, chunk_number=30, previous_chunk_id='3386d555-80e5-21be-fded-e192a9b1cc47', next_chunk_id='8220ca91-2093-e907-13cd-e0394bb365c4', page_number=1, section_title='Results and Discussion > Changes in Molecular Organization Following Abnormal PRC Development in crumbs Mutants', subsection='C","truncated_preview":true},{"payload_id":"observation:54e2439c62aedbc5:metadata.event_payload","trace_id":"58277312e737940d52160a3192a818d1","scope":"observation","source_id":"54e2439c62aedbc5","observation_id":"54e2439c62aedbc5","field":"metadata.event_payload","name":"extraction_trace_event","kind":"event","observation_type":"EVENT","parent_observation_id":"5048b6076dc6cf42","start_time":"2026-06-06 23:18:20.545000+00:00","char_count":6854,"byte_count":6854,"rough_token_estimate":1714,"sha256":"d27cc1d66bbaa6a47092dc9f9194202fde74c18836d9f2a29d856d6e34089c77","preview":"{\"domain_pack_id\": null, \"event_id\": \"evt-494719bcbafa44ddb027e4113b74dcd3\", \"event_size\": {\"estimated_tokens\": 1615, \"json_bytes\": 6460, \"json_chars\": 6460}, \"event_type\": \"extraction_builder.finalization_decision\", \"input_summary\": {}, \"metadata\": {\"agent_id\": \"Dev Release Smoke Agent 2a16977d\", \"builder_run_id\": \"58277312e737940d52160a3192a818d1\", \"builder_state\": \"finalized\", \"document_id\": \"91570626-92bc-408e-8a6c-add1a388c315\"}, \"observation_id\": \"5048b6076dc6cf42\", \"output_summary\": {\"bou","truncated_preview":true},{"payload_id":"observation:c90f4cf52022ed94:metadata.event_payload","trace_id":"58277312e737940d52160a3192a818d1","scope":"observation","source_id":"c90f4cf52022ed94","observation_id":"c90f4cf52022ed94","field":"metadata.event_payload","name":"extraction_trace_event","kind":"event","observation_type":"EVENT","parent_observation_id":"5048b6076dc6cf42","start_time":"2026-06-06 23:18:20.543000+00:00","char_count":6063,"byte_count":6063,"rough_token_estimate":1516,"sha256":"a6667d7baa3b1b892a2dabc3e407afa15d6cb13f34064be7ee08650410dccfe8","preview":"{\"domain_pack_id\": null, \"event_id\": \"evt-f78131475df146ed9e3ee49f7cd87382\", \"event_size\": {\"estimated_tokens\": 1426, \"json_bytes\": 5702, \"json_chars\": 5702}, \"event_type\": \"extraction_builder.candidate_mutation\", \"input_summary\": {}, \"metadata\": {\"agent_id\": \"Dev Release Smoke Agent 2a16977d\", \"builder_run_id\": \"58277312e737940d52160a3192a818d1\", \"builder_state\": \"active\", \"document_id\": \"91570626-92bc-408e-8a6c-add1a388c315\"}, \"observation_id\": \"5048b6076dc6cf42\", \"output_summary\": {\"bounded\":","truncated_preview":true},{"payload_id":"observation:12f8ef8c28803186:metadata.event_payload","trace_id":"58277312e737940d52160a3192a818d1","scope":"observation","source_id":"12f8ef8c28803186","observation_id":"12f8ef8c28803186","field":"metadata.event_payload","name":"extraction_trace_event","kind":"event","observation_type":"EVENT","parent_observation_id":"5048b6076dc6cf42","start_time":"2026-06-06 23:18:10.796000+00:00","char_count":5155,"byte_count":5155,"rough_token_estimate":1289,"sha256":"2b03a61d10df92c25cd77ea84613d129e15854dec07949219b49eb620dd169ce","preview":"{\"domain_pack_id\": null, \"event_id\": \"evt-acfbf36285e941e6a7e98e4d39956851\", \"event_size\": {\"estimated_tokens\": 1222, \"json_bytes\": 4885, \"json_chars\": 4885}, \"event_type\": \"specialist_tool_call.completed\", \"input_summary\": {\"bounded\": true, \"preview\": {\"durationMs\": 333, \"friendlyName\": \"Dev Release Smoke Agent 2a16977d: Read Chunk complete\", \"isSpecialistInternal\": true, \"success\": true, \"toolCallId\": \"fc_0166a31c67b1fca5006a24aab26a2c81a2b36167f3308949c3\", \"toolName\": \"read_chunk\"}, \"preview_","truncated_preview":true},{"payload_id":"observation:09a349539b95cdee:metadata.event_payload","trace_id":"58277312e737940d52160a3192a818d1","scope":"observation","source_id":"09a349539b95cdee","observation_id":"09a349539b95cdee","field":"metadata.event_payload","name":"extraction_trace_event","kind":"event","observation_type":"EVENT","parent_observation_id":"5048b6076dc6cf42","start_time":"2026-06-06 23:18:26.474000+00:00","char_count":4627,"byte_count":4627,"rough_token_estimate":1157,"sha256":"1f1829919f8283242de0345ca47bfe9b38e702d0f68de9c739b0a2e2d92bfe90","preview":"{\"domain_pack_id\": null, \"event_id\": \"evt-0aa38570f681481ab41bc4aa4f829338\", \"event_size\": {\"estimated_tokens\": 1090, \"json_bytes\": 4360, \"json_chars\": 4360}, \"event_type\": \"evidence.summary\", \"input_summary\": {\"bounded\": true, \"preview\": {\"evidence_records\": [{\"chunk_id\": \"17c89c9a-1efb-38ea-1574-9ec1c58ea444\", \"chunk_ids\": [\"17c89c9a-1efb-38ea-1574-9ec1c58ea444\"], \"document_id\": \"91570626-92bc-408e-8a6c-add1a388c315\", \"entity\": \"crb\", \"evidence_record_id\": \"evidence-11e07bc45df29827\", \"page\": ","truncated_preview":true},{"payload_id":"observation:03bbaecf4aba9a9b:metadata.event_payload","trace_id":"58277312e737940d52160a3192a818d1","scope":"observation","source_id":"03bbaecf4aba9a9b","observation_id":"03bbaecf4aba9a9b","field":"metadata.event_payload","name":"extraction_trace_event","kind":"event","observation_type":"EVENT","parent_observation_id":"5048b6076dc6cf42","start_time":"2026-06-06 23:18:21.837000+00:00","char_count":4479,"byte_count":4479,"rough_token_estimate":1120,"sha256":"86d54a8a7316894bab146c50a5b17851de5cc6d9674c08f9778ff722731e42da","preview":"{\"domain_pack_id\": null, \"event_id\": \"evt-fa847188b19b4f5c8b8b58c30941ce12\", \"event_size\": {\"estimated_tokens\": 1054, \"json_bytes\": 4216, \"json_chars\": 4216}, \"event_type\": \"evidence.summary\", \"input_summary\": {\"bounded\": true, \"preview\": {\"evidence_records\": [{\"chunk_id\": \"17c89c9a-1efb-38ea-1574-9ec1c58ea444\", \"chunk_ids\": [\"17c89c9a-1efb-38ea-1574-9ec1c58ea444\"], \"document_id\": \"91570626-92bc-408e-8a6c-add1a388c315\", \"entity\": \"crb\", \"evidence_record_id\": \"evidence-11e07bc45df29827\", \"page\": ","truncated_preview":true},{"payload_id":"observation:f0d03fd69477a766:output","trace_id":"58277312e737940d52160a3192a818d1","scope":"observation","source_id":"f0d03fd69477a766","observation_id":"f0d03fd69477a766","field":"output","name":"response","kind":"model","observation_type":"GENERATION","parent_observation_id":"eda71fe72ee4bbaa","start_time":"2026-06-06 23:18:21.843000+00:00","char_count":4186,"byte_count":4186,"rough_token_estimate":1047,"sha256":"29dedc4c53dec7b93285f60a9381a4f254672a5c8ea4b9324fc005c5932dd338","preview":"{\"background\": false, \"completed_at\": 1780787906, \"conversation\": null, \"created_at\": 1780787901, \"error\": null, \"frequency_penalty\": 0, \"id\": \"resp_0f7886fcb5785bf3006a24aabdddb0819db456196c7043e008\", \"incomplete_details\": null, \"instructions\": \"You are executing the \\\"Dev Release Smoke Flow 7d0c3ed9\\\" curation flow.\\n\\nDocument Available ('sample_fly_publication.pdf'): A document is loaded for this flow execution.\\nUse the PDF Specialist tools to read and search the document's content.\\nDo NOT","truncated_preview":true},{"payload_id":"observation:cb6b5dc568f16d8d:output","trace_id":"58277312e737940d52160a3192a818d1","scope":"observation","source_id":"cb6b5dc568f16d8d","observation_id":"cb6b5dc568f16d8d","field":"output","name":"response","kind":"model","observation_type":"GENERATION","parent_observation_id":"eda71fe72ee4bbaa","start_time":"2026-06-06 23:18:01.672000+00:00","char_count":4007,"byte_count":4007,"rough_token_estimate":1002,"sha256":"51ec36ff5811ab9844b0d746edf3a4dadab05c682a16f331a839b6679bbf9095","preview":"{\"background\": false, \"completed_at\": 1780787884, \"conversation\": null, \"created_at\": 1780787882, \"error\": null, \"frequency_penalty\": 0, \"id\": \"resp_0f7886fcb5785bf3006a24aaaa461c819d8dfb17f8774c6091\", \"incomplete_details\": null, \"instructions\": \"You are executing the \\\"Dev Release Smoke Flow 7d0c3ed9\\\" curation flow.\\n\\nDocument Available ('sample_fly_publication.pdf'): A document is loaded for this flow execution.\\nUse the PDF Specialist tools to read and search the document's content.\\nDo NOT","truncated_preview":true},{"payload_id":"observation:7e2579fe59f112f0:output","trace_id":"58277312e737940d52160a3192a818d1","scope":"observation","source_id":"7e2579fe59f112f0","observation_id":"7e2579fe59f112f0","field":"output","name":"read_chunk","kind":"tool","observation_type":"TOOL","parent_observation_id":"d9ecfcac743c5d69","start_time":"2026-06-06 23:18:10.722000+00:00","char_count":3539,"byte_count":3539,"rough_token_estimate":885,"sha256":"17b7e7ea67a65e978525b7e00f72d4db234237f895cb0a68aa8f3d7dbcf193c5","preview":"summary=\"Read chunk '8a231d45-0752-b251-3e8b-4d7d1c6954dd' from page 1. Select evidence_spans[].span_id for record_evidence.\" chunk=ChunkReadContent(chunk_id='8a231d45-0752-b251-3e8b-4d7d1c6954dd', chunk_index=1, chunk_number=2, previous_chunk_id='e206098e-9360-0933-5d56-caf39eb314f0', next_chunk_id='804db4cd-6294-65b6-1364-7edef3af18a1', page_number=1, section_title='Abstract', subsection=None, content='Absolute Quantification of Proteins in the Eye of Drosophila melanogaster\\nBharath Kumar Rag","truncated_preview":true},{"payload_id":"observation:45ed169e608dd5bc:metadata.event_payload","trace_id":"58277312e737940d52160a3192a818d1","scope":"observation","source_id":"45ed169e608dd5bc","observation_id":"45ed169e608dd5bc","field":"metadata.event_payload","name":"extraction_trace_event","kind":"event","observation_type":"EVENT","parent_observation_id":"5048b6076dc6cf42","start_time":"2026-06-06 23:18:14.862000+00:00","char_count":3237,"byte_count":3237,"rough_token_estimate":810,"sha256":"ef6926d59e122be21e162e39bdb68002ca4285e5ade07ff99aacc76de4018d4a","preview":"{\"domain_pack_id\": null, \"event_id\": \"evt-f1c9887b6c274d63bfc4cb7dcd2ce4a2\", \"event_size\": {\"estimated_tokens\": 753, \"json_bytes\": 3011, \"json_chars\": 3011}, \"event_type\": \"specialist_tool_call.completed\", \"input_summary\": {\"bounded\": true, \"preview\": {\"durationMs\": 202, \"friendlyName\": \"Dev Release Smoke Agent 2a16977d: Record Evidence complete\", \"isSpecialistInternal\": true, \"success\": true, \"toolCallId\": \"fc_0166a31c67b1fca5006a24aab67a3c81a28d381fe4dcd2713d\", \"toolName\": \"record_evidence\"}, ","truncated_preview":true},{"payload_id":"observation:25790851e6cb9fa5:metadata.event_payload","trace_id":"58277312e737940d52160a3192a818d1","scope":"observation","source_id":"25790851e6cb9fa5","observation_id":"25790851e6cb9fa5","field":"metadata.event_payload","name":"extraction_trace_event","kind":"event","observation_type":"EVENT","parent_observation_id":"5048b6076dc6cf42","start_time":"2026-06-06 23:18:20.548000+00:00","char_count":3211,"byte_count":3211,"rough_token_estimate":803,"sha256":"62137465a286476e4a424a214864ec84c90c3c22538b7ffb3463075999fc7edb","preview":"{\"domain_pack_id\": null, \"event_id\": \"evt-d64fc844705e429a92521d1b4aa36b5e\", \"event_size\": {\"estimated_tokens\": 737, \"json_bytes\": 2946, \"json_chars\": 2946}, \"event_type\": \"specialist_tool_call.completed\", \"input_summary\": {\"bounded\": true, \"preview\": {\"durationMs\": 207, \"friendlyName\": \"Dev Release Smoke Agent 2a16977d: Finalize Gene Extraction complete\", \"isSpecialistInternal\": true, \"success\": true, \"toolCallId\": \"fc_0166a31c67b1fca5006a24aabc3ca881a2a3f97e8b6b515f74\", \"toolName\": \"finalize_g","truncated_preview":true},{"payload_id":"observation:1520880a499bc2ab:metadata.event_payload","trace_id":"58277312e737940d52160a3192a818d1","scope":"observation","source_id":"1520880a499bc2ab","observation_id":"1520880a499bc2ab","field":"metadata.event_payload","name":"extraction_trace_event","kind":"event","observation_type":"EVENT","parent_observation_id":"5048b6076dc6cf42","start_time":"2026-06-06 23:18:16.992000+00:00","char_count":2829,"byte_count":2829,"rough_token_estimate":708,"sha256":"8359aeb100f7ea8701c0154d8d262ffcfed1812b850eefe7adf61eefd5f2018e","preview":"{\"domain_pack_id\": null, \"event_id\": \"evt-4a1ee0b084fd4561a9ce9fe77259e09c\", \"event_size\": {\"estimated_tokens\": 654, \"json_bytes\": 2614, \"json_chars\": 2614}, \"event_type\": \"specialist_tool_call.started\", \"input_summary\": {\"bounded\": true, \"preview\": {\"confidence\": \"high\", \"data_provider_hint\": \"FB\", \"evidence_record_ids\": [\"evidence-11e07bc45df29827\"], \"identity_resolution_notes\": [\"The paper studies Drosophila eye mutants and explicitly refers to crb/crumbs mutants with abnormal rhabdomere morp","truncated_preview":true},{"payload_id":"observation:55f90865ce3a22c5:metadata.event_payload","trace_id":"58277312e737940d52160a3192a818d1","scope":"observation","source_id":"55f90865ce3a22c5","observation_id":"55f90865ce3a22c5","field":"metadata.event_payload","name":"extraction_trace_event","kind":"event","observation_type":"EVENT","parent_observation_id":"5048b6076dc6cf42","start_time":"2026-06-06 23:18:17.148000+00:00","char_count":2747,"byte_count":2747,"rough_token_estimate":687,"sha256":"22f2652a89b83dcecf7d40b3df82f8114edd2a22b48427b7c2fb4a5de8e247f3","preview":"{\"domain_pack_id\": null, \"event_id\": \"evt-86a4ac66d82841e9a4a351082049eb72\", \"event_size\": {\"estimated_tokens\": 627, \"json_bytes\": 2506, \"json_chars\": 2506}, \"event_type\": \"specialist_tool_call.completed\", \"input_summary\": {\"bounded\": true, \"preview\": {\"durationMs\": 156, \"friendlyName\": \"Dev Release Smoke Agent 2a16977d: Stage Gene Mention Evidence complete\", \"isSpecialistInternal\": true, \"success\": true, \"toolCallId\": \"fc_0166a31c67b1fca5006a24aab8b31081a2b19affb979afb1ce\", \"toolName\": \"stage_g","truncated_preview":true},{"payload_id":"observation:1e800a1297769e01:metadata.event_payload","trace_id":"58277312e737940d52160a3192a818d1","scope":"observation","source_id":"1e800a1297769e01","observation_id":"1e800a1297769e01","field":"metadata.event_payload","name":"extraction_trace_event","kind":"event","observation_type":"EVENT","parent_observation_id":"5048b6076dc6cf42","start_time":"2026-06-06 23:18:20.546000+00:00","char_count":2699,"byte_count":2699,"rough_token_estimate":675,"sha256":"412f079a63791b6c9e42c458026561ef3630f9b23c954524299cd125670d04c4","preview":"{\"domain_pack_id\": \"gene\", \"event_id\": \"evt-3cb1b19e236b4d7a901b2a26e5bef354\", \"event_size\": {\"estimated_tokens\": 615, \"json_bytes\": 2460, \"json_chars\": 2460}, \"event_type\": \"gene_builder.finalize_completed\", \"input_summary\": {\"bounded\": true, \"preview\": {\"candidate_ids\": [\"gene-candidate-1\"], \"method\": \"finalize_gene_extraction\"}, \"preview_length\": 77, \"size\": {\"estimated_tokens\": 19, \"json_bytes\": 74, \"json_chars\": 74, \"kind\": \"object\", \"top_level_keys\": 2}}, \"metadata\": {\"action\": \"finalize\",","truncated_preview":true},{"payload_id":"observation:027b7d167d975c71:metadata.event_payload","trace_id":"58277312e737940d52160a3192a818d1","scope":"observation","source_id":"027b7d167d975c71","observation_id":"027b7d167d975c71","field":"metadata.event_payload","name":"extraction_trace_event","kind":"event","observation_type":"EVENT","parent_observation_id":"5048b6076dc6cf42","start_time":"2026-06-06 23:18:21.841000+00:00","char_count":2553,"byte_count":2553,"rough_token_estimate":639,"sha256":"2a3046dbdcaccc1581f895f4568200e0b3020b856c4fe5f63330dc396321b0f3","preview":"{\"domain_pack_id\": null, \"event_id\": \"evt-3b869c78a5974938a9e57afb7b672b69\", \"event_size\": {\"estimated_tokens\": 581, \"json_bytes\": 2321, \"json_chars\": 2321}, \"event_type\": \"runtime.flow_step_timing\", \"input_summary\": {\"bounded\": true, \"preview\": {\"agentId\": \"ca_1e1eb089-750c-4b16-a615-e026f93561f9\", \"agentName\": \"Dev Release Smoke Agent 2a16977d\", \"candidateBuilt\": false, \"evidenceCount\": 0, \"flowId\": \"a8e2c9d4-84d9-4417-b7c1-2781ef9c4124\", \"flowName\": \"Dev Release Smoke Flow 7d0c3ed9\", \"flowRun","truncated_preview":true},{"payload_id":"observation:4fc8bfb060356832:metadata.event_payload","trace_id":"58277312e737940d52160a3192a818d1","scope":"observation","source_id":"4fc8bfb060356832","observation_id":"4fc8bfb060356832","field":"metadata.event_payload","name":"extraction_trace_event","kind":"event","observation_type":"EVENT","parent_observation_id":"5048b6076dc6cf42","start_time":"2026-06-06 23:18:19.230000+00:00","char_count":2489,"byte_count":2489,"rough_token_estimate":623,"sha256":"0f0391c05aaa486b038a8d9dc72366084a0a1f7e0f25585d9c54fb25199a61a2","preview":"{\"domain_pack_id\": null, \"event_id\": \"evt-aa91dc3a9cb24f738da14f2c087ca326\", \"event_size\": {\"estimated_tokens\": 571, \"json_bytes\": 2281, \"json_chars\": 2281}, \"event_type\": \"specialist_tool_call.completed\", \"input_summary\": {\"bounded\": true, \"preview\": {\"durationMs\": 184, \"friendlyName\": \"Dev Release Smoke Agent 2a16977d: List Recorded Evidence complete\", \"isSpecialistInternal\": true, \"success\": true, \"toolCallId\": \"fc_0166a31c67b1fca5006a24aabaf21c81a2aeb7dfb3f3dd7650\", \"toolName\": \"list_recorde","truncated_preview":true},{"payload_id":"observation:404332c23c8fdae8:metadata.event_payload","trace_id":"58277312e737940d52160a3192a818d1","scope":"observation","source_id":"404332c23c8fdae8","observation_id":"404332c23c8fdae8","field":"metadata.event_payload","name":"extraction_trace_event","kind":"event","observation_type":"EVENT","parent_observation_id":"5048b6076dc6cf42","start_time":"2026-06-06 23:18:17.147000+00:00","char_count":2447,"byte_count":2447,"rough_token_estimate":612,"sha256":"93e9b11af606c2749a69be42b1eb1283367d090132beefc5066bae556650a3b8","preview":"{\"domain_pack_id\": \"gene\", \"event_id\": \"evt-f6b720a93b9347649738cdb1dd06ac6a\", \"event_size\": {\"estimated_tokens\": 555, \"json_bytes\": 2220, \"json_chars\": 2220}, \"event_type\": \"gene_builder.stage_completed\", \"input_summary\": {\"bounded\": true, \"preview\": {\"confidence\": \"high\", \"evidence_record_ids\": [\"evidence-11e07bc45df29827\"], \"mention\": \"crb\", \"method\": \"stage_gene_mention_evidence\", \"pending_ref_id\": \"gene-mention-evidence-crb-1\"}, \"preview_length\": 184, \"size\": {\"estimated_tokens\": 44, \"json_","truncated_preview":true},{"payload_id":"observation:3b340c1834af552a:metadata.event_payload","trace_id":"58277312e737940d52160a3192a818d1","scope":"observation","source_id":"3b340c1834af552a","observation_id":"3b340c1834af552a","field":"metadata.event_payload","name":"extraction_trace_event","kind":"event","observation_type":"EVENT","parent_observation_id":"5048b6076dc6cf42","start_time":"2026-06-06 23:18:04.224000+00:00","char_count":2369,"byte_count":2369,"rough_token_estimate":593,"sha256":"94ef4c44d0fc214605d21f35bda13e3aaff83be8944dc0da2a1ddca2c2a5768c","preview":"{\"domain_pack_id\": null, \"event_id\": \"evt-6e09b721146c42ceb4d272b7716b83b6\", \"event_size\": {\"estimated_tokens\": 549, \"json_bytes\": 2196, \"json_chars\": 2196}, \"event_type\": \"tool_call.started\", \"input_summary\": {\"bounded\": true, \"preview\": {\"query\": \"Read the loaded paper and extract exactly one experimentally supported gene: crb/Crumbs. Include the organism when possible. Call record_evidence for one supporting quote, and include the returned evidence_record_id on the retained item. Do not extra","truncated_preview":true},{"payload_id":"observation:44118ec16b9c3193:metadata.event_payload","trace_id":"58277312e737940d52160a3192a818d1","scope":"observation","source_id":"44118ec16b9c3193","observation_id":"44118ec16b9c3193","field":"metadata.event_payload","name":"extraction_trace_event","kind":"event","observation_type":"EVENT","parent_observation_id":"5048b6076dc6cf42","start_time":"2026-06-06 23:18:17.146000+00:00","char_count":2104,"byte_count":2104,"rough_token_estimate":526,"sha256":"f28f8d9881a6c8f86fe2e381b338ad69471fdc8780b5411d11bf6ba821db9714","preview":"{\"domain_pack_id\": null, \"event_id\": \"evt-658543b766c54ecc8171135fff4b9776\", \"event_size\": {\"estimated_tokens\": 479, \"json_bytes\": 1914, \"json_chars\": 1914}, \"event_type\": \"extraction_builder.candidate_mutation\", \"input_summary\": {}, \"metadata\": {\"agent_id\": \"Dev Release Smoke Agent 2a16977d\", \"builder_run_id\": \"58277312e737940d52160a3192a818d1\", \"builder_state\": \"active\", \"document_id\": \"91570626-92bc-408e-8a6c-add1a388c315\"}, \"observation_id\": \"5048b6076dc6cf42\", \"output_summary\": {\"bounded\": ","truncated_preview":true},{"payload_id":"observation:86e98d8e3428b095:metadata.event_payload","trace_id":"58277312e737940d52160a3192a818d1","scope":"observation","source_id":"86e98d8e3428b095","observation_id":"86e98d8e3428b095","field":"metadata.event_payload","name":"extraction_trace_event","kind":"event","observation_type":"EVENT","parent_observation_id":"5048b6076dc6cf42","start_time":"2026-06-06 23:18:14.660000+00:00","char_count":2026,"byte_count":2026,"rough_token_estimate":507,"sha256":"3a3c92c448c0e40646498359029a2960fca87758b26ee0a2ff3af525d63aa710","preview":"{\"domain_pack_id\": null, \"event_id\": \"evt-c934fa427a8a4d699330d354c96770c6\", \"event_size\": {\"estimated_tokens\": 457, \"json_bytes\": 1825, \"json_chars\": 1825}, \"event_type\": \"specialist_tool_call.started\", \"input_summary\": {\"bounded\": true, \"preview\": {\"entity\": \"crb\", \"field_path\": null, \"object_id\": null, \"object_type\": null, \"pending_ref_id\": null, \"span_ids\": [\"17c89c9a-1efb-38ea-1574-9ec1c58ea444:s0002:c0114-c0382:a7d27814\"], \"validation_finding_id\": null}, \"preview_length\": 213, \"size\": {\"es","truncated_preview":true},{"payload_id":"observation:f97f89bba0f36c60:metadata.event_payload","trace_id":"58277312e737940d52160a3192a818d1","scope":"observation","source_id":"f97f89bba0f36c60","observation_id":"f97f89bba0f36c60","field":"metadata.event_payload","name":"extraction_trace_event","kind":"event","observation_type":"EVENT","parent_observation_id":"5048b6076dc6cf42","start_time":"2026-06-06 23:18:07.244000+00:00","char_count":1941,"byte_count":1941,"rough_token_estimate":486,"sha256":"fabce2002c114d4128624a6c42b7f810aaa29d3f3de3f2e1e62c5aac498977cc","preview":"{\"domain_pack_id\": null, \"event_id\": \"evt-1b2afa85570f41929b3e42c178ad4c3d\", \"event_size\": {\"estimated_tokens\": 438, \"json_bytes\": 1750, \"json_chars\": 1750}, \"event_type\": \"specialist_tool_call.started\", \"input_summary\": {\"bounded\": true, \"preview\": {\"limit\": 5, \"query\": \"crb Crumbs mutant eyes rhabdomere morphogenesis\", \"search_mode\": \"hybrid_lexical_first\", \"section_keywords\": [\"Abstract\", \"Results and Discussion\"]}, \"preview_length\": 171, \"size\": {\"estimated_tokens\": 41, \"json_bytes\": 163, \"j","truncated_preview":true}]},"token_info":{"estimated_tokens":7195,"within_budget":true,"warning":null}}