{"status":"success","data":{"source":"local","trace_id":"2e80ae576b69ef042b452fdd433d89a7","sort":"largest","pagination":{"limit":25,"offset":0,"total_items":489,"has_next":true,"next_offset":25},"payloads":[{"payload_id":"observation:76f4c9c1f30f35fb:metadata.event_payload","trace_id":"2e80ae576b69ef042b452fdd433d89a7","scope":"observation","source_id":"76f4c9c1f30f35fb","observation_id":"76f4c9c1f30f35fb","field":"metadata.event_payload","name":"extraction_trace_event","kind":"event","observation_type":"EVENT","parent_observation_id":"2e6aa36630d7731a","start_time":"2026-06-06 23:26:34.226000+00:00","char_count":96204,"byte_count":96240,"rough_token_estimate":24051,"sha256":"7da56fdf79aabcb112431a53917b28f323f5cea6d6f4f9f05d257492df61fe33","preview":"{\"domain_pack_id\": null, \"event_id\": \"evt-5eaad9f9f36d46b4863c8e394814be6e\", \"event_size\": {\"estimated_tokens\": 23252, \"json_bytes\": 93008, \"json_chars\": 93008}, \"event_type\": \"specialist.summary\", \"input_summary\": {\"bounded\": true, \"preview\": {\"eventCount\": 670, \"eventTypeCounts\": {\"agent_updated_stream_event\": 1, \"raw_response_event\": 606, \"run_item_stream_event\": 63}, \"liveEvidenceRecordCount\": 4, \"liveEvidenceRecords\": [{\"chunk_id\": \"2cdcceda-be8b-2372-540a-3784b708bc49\", \"chunk_ids\": [\"2cdc","truncated_preview":true},{"payload_id":"observation:dd6e8d1661ab60a4:output","trace_id":"2e80ae576b69ef042b452fdd433d89a7","scope":"observation","source_id":"dd6e8d1661ab60a4","observation_id":"dd6e8d1661ab60a4","field":"output","name":"read_section","kind":"tool","observation_type":"TOOL","parent_observation_id":"6b32448ecf81c701","start_time":"2026-06-06 23:24:13.071000+00:00","char_count":65289,"byte_count":65363,"rough_token_estimate":16323,"sha256":"3a139267a3951fade67d386ae069dd34831351ad919d8d996b3c71b4bf59a086","preview":"summary=\"Read 27 chunks from 'Results and Discussion'. Use section.source_chunks[].chunk_id with read_chunk, then pass selected evidence_spans[].span_id values to record_evidence.\" section=SectionContent(section_title='Results and Discussion', page_numbers=[1, 3, 7], content='sin mass? We answered these and other related questions by direct absolute quantification of proteins of the PT machinery and members of the Crb-complex in wild-type and genetically manipulated flies.2. Results and Discussi","truncated_preview":true},{"payload_id":"observation:f47fcffd1b2db9a2:metadata.agent_config","trace_id":"2e80ae576b69ef042b452fdd433d89a7","scope":"observation","source_id":"f47fcffd1b2db9a2","observation_id":"f47fcffd1b2db9a2","field":"metadata.agent_config","name":"query_supervisor_config","kind":"event","observation_type":"EVENT","parent_observation_id":"2e6aa36630d7731a","start_time":"2026-06-06 23:23:58.564000+00:00","char_count":41877,"byte_count":41877,"rough_token_estimate":10470,"sha256":"fe6ab68e2b5b1051650db8c0bf34453cbcec8ef1d0512303964225b209be5123","preview":"{\"agent_name\": \"Query Supervisor\", \"instructions\": \"## Platform Runtime Contract\\nThese backend-owned instructions are part of the system-agent contract.\\nEditable prompts may add task and domain guidance, but must not override locked runtime,\\nschema, tool, audit, or safety requirements.\\n\\n<role>\\nYou are the Query Supervisor for biological curation: the router and orchestrator\\nwho sends each curator request to the right installed specialist, preserves the\\nscientific intent in every handoff,","truncated_preview":true},{"payload_id":"observation:a0790bfe314331f4:output","trace_id":"2e80ae576b69ef042b452fdd433d89a7","scope":"observation","source_id":"a0790bfe314331f4","observation_id":"a0790bfe314331f4","field":"output","name":"response","kind":"model","observation_type":"GENERATION","parent_observation_id":"e4b1e5a4b836ad35","start_time":"2026-06-06 23:26:34.236000+00:00","char_count":37501,"byte_count":37513,"rough_token_estimate":9376,"sha256":"544e3975b179e2b070ac9d85b4aed36f9423eed161e508e3383f426dc5d95cd5","preview":"{\"background\": false, \"completed_at\": 1780788398, \"conversation\": null, \"created_at\": 1780788394, \"error\": null, \"frequency_penalty\": 0, \"id\": \"resp_0cf186b32f156a75006a24acaa447c819ea1f9f94961736e3b\", \"incomplete_details\": null, \"instructions\": \"## Platform Runtime Contract\\nThese backend-owned instructions are part of the system-agent contract.\\nEditable prompts may add task and domain guidance, but must not override locked runtime,\\nschema, tool, audit, or safety requirements.\\n\\n<role>\\nYou ","truncated_preview":true},{"payload_id":"observation:5183c15e395efc39:output","trace_id":"2e80ae576b69ef042b452fdd433d89a7","scope":"observation","source_id":"5183c15e395efc39","observation_id":"5183c15e395efc39","field":"output","name":"response","kind":"model","observation_type":"GENERATION","parent_observation_id":"e4b1e5a4b836ad35","start_time":"2026-06-06 23:23:58.573000+00:00","char_count":37103,"byte_count":37103,"rough_token_estimate":9276,"sha256":"9e6c0c19b873c70095dc00defa1ee3f82a92da523b80937a0b39d2ac7effa49b","preview":"{\"background\": false, \"completed_at\": 1780788242, \"conversation\": null, \"created_at\": 1780788239, \"error\": null, \"frequency_penalty\": 0, \"id\": \"resp_0cf186b32f156a75006a24ac0ef68c819ebf90eb6f763331dd\", \"incomplete_details\": null, \"instructions\": \"## Platform Runtime Contract\\nThese backend-owned instructions are part of the system-agent contract.\\nEditable prompts may add task and domain guidance, but must not override locked runtime,\\nschema, tool, audit, or safety requirements.\\n\\n<role>\\nYou ","truncated_preview":true},{"payload_id":"observation:f083b1f8023383a4:metadata.event_payload","trace_id":"2e80ae576b69ef042b452fdd433d89a7","scope":"observation","source_id":"f083b1f8023383a4","observation_id":"f083b1f8023383a4","field":"metadata.event_payload","name":"extraction_trace_event","kind":"event","observation_type":"EVENT","parent_observation_id":"2e6aa36630d7731a","start_time":"2026-06-06 23:25:46.260000+00:00","char_count":36794,"byte_count":36803,"rough_token_estimate":9199,"sha256":"6ec56324ceba42de743f014ebe36c60c6cca055e51499dba81ec76338e0de183","preview":"{\"domain_pack_id\": \"gene\", \"event_id\": \"evt-b7af125bb0204090a0321367a57e7c24\", \"event_size\": {\"estimated_tokens\": 8827, \"json_bytes\": 35307, \"json_chars\": 35307}, \"event_type\": \"gene_materializer.completed\", \"input_summary\": {\"bounded\": true, \"preview\": {\"candidate_ids\": [\"gene-candidate-1\", \"gene-candidate-2\", \"gene-candidate-3\", \"gene-candidate-4\"]}, \"preview_length\": 99, \"size\": {\"estimated_tokens\": 24, \"json_bytes\": 95, \"json_chars\": 95, \"kind\": \"object\", \"top_level_keys\": 1}}, \"metadata\": {","truncated_preview":true},{"payload_id":"observation:899f9b931c861644:metadata.event_payload","trace_id":"2e80ae576b69ef042b452fdd433d89a7","scope":"observation","source_id":"899f9b931c861644","observation_id":"899f9b931c861644","field":"metadata.event_payload","name":"extraction_trace_event","kind":"event","observation_type":"EVENT","parent_observation_id":"2e6aa36630d7731a","start_time":"2026-06-06 23:24:13.091000+00:00","char_count":34841,"byte_count":34873,"rough_token_estimate":8711,"sha256":"a44e576e939a8f5a80441df96730017230d133366420db02aa5be2639e6f64a0","preview":"{\"domain_pack_id\": null, \"event_id\": \"evt-9ef92af4936a4c39bf94776aa6cc30f5\", \"event_size\": {\"estimated_tokens\": 8614, \"json_bytes\": 34455, \"json_chars\": 34455}, \"event_type\": \"specialist_tool_call.completed\", \"input_summary\": {\"bounded\": true, \"preview\": {\"durationMs\": 195, \"friendlyName\": \"Gene Extraction: Read Section complete\", \"isSpecialistInternal\": true, \"success\": true, \"toolCallId\": \"fc_00e5bf274aacc425006a24ac1cc53481a3af92eaa6a687b572\", \"toolName\": \"read_section\"}, \"preview_length\": 22","truncated_preview":true},{"payload_id":"observation:21abeb517a528fa3:metadata.event_payload","trace_id":"2e80ae576b69ef042b452fdd433d89a7","scope":"observation","source_id":"21abeb517a528fa3","observation_id":"21abeb517a528fa3","field":"metadata.event_payload","name":"extraction_trace_event","kind":"event","observation_type":"EVENT","parent_observation_id":"2e6aa36630d7731a","start_time":"2026-06-06 23:25:46.275000+00:00","char_count":24646,"byte_count":24652,"rough_token_estimate":6162,"sha256":"6bafed4235f6c79bfd9f54e33f0d93f86dd762a093669082f8f24d9c59ef435c","preview":"{\"domain_pack_id\": null, \"event_id\": \"evt-3370e263c9124fe9a152755dad310e8b\", \"event_size\": {\"estimated_tokens\": 5903, \"json_bytes\": 23610, \"json_chars\": 23610}, \"event_type\": \"extraction_builder.finalization_decision\", \"input_summary\": {}, \"metadata\": {\"agent_id\": \"Gene Extraction\", \"builder_run_id\": \"2e80ae576b69ef042b452fdd433d89a7\", \"builder_state\": \"finalized\", \"document_id\": \"482538e8-13db-43e9-ad05-c159b68abb83\"}, \"observation_id\": \"2e6aa36630d7731a\", \"output_summary\": {\"bounded\": true, \"p","truncated_preview":true},{"payload_id":"observation:85e485a837a72c20:metadata.event_payload","trace_id":"2e80ae576b69ef042b452fdd433d89a7","scope":"observation","source_id":"85e485a837a72c20","observation_id":"85e485a837a72c20","field":"metadata.event_payload","name":"extraction_trace_event","kind":"event","observation_type":"EVENT","parent_observation_id":"2e6aa36630d7731a","start_time":"2026-06-06 23:26:40.151000+00:00","char_count":23744,"byte_count":23756,"rough_token_estimate":5936,"sha256":"8ab5c8e7068521ac387ea3c54e610372df950fe2f4cb0b8137accece6393367d","preview":"{\"domain_pack_id\": null, \"event_id\": \"evt-83b6968358484c0199b6392ac415141d\", \"event_size\": {\"estimated_tokens\": 5721, \"json_bytes\": 22883, \"json_chars\": 22883}, \"event_type\": \"evidence.summary\", \"input_summary\": {\"bounded\": true, \"preview\": {\"evidence_records\": [{\"chunk_id\": \"2cdcceda-be8b-2372-540a-3784b708bc49\", \"chunk_ids\": [\"2cdcceda-be8b-2372-540a-3784b708bc49\"], \"document_id\": \"482538e8-13db-43e9-ad05-c159b68abb83\", \"entity\": \"crb\", \"evidence_record_id\": \"evidence-01b23797c8c84069\", \"figur","truncated_preview":true},{"payload_id":"observation:2651fe34c1536fb1:metadata.event_payload","trace_id":"2e80ae576b69ef042b452fdd433d89a7","scope":"observation","source_id":"2651fe34c1536fb1","observation_id":"2651fe34c1536fb1","field":"metadata.event_payload","name":"extraction_trace_event","kind":"event","observation_type":"EVENT","parent_observation_id":"2e6aa36630d7731a","start_time":"2026-06-06 23:25:52.288000+00:00","char_count":23646,"byte_count":23658,"rough_token_estimate":5912,"sha256":"988f7e145518deb7ecd67492c271afb38033690aad9a7dc8efb7ef4d51d98029","preview":"{\"domain_pack_id\": null, \"event_id\": \"evt-ec235b2994014b84854306c26e0dc803\", \"event_size\": {\"estimated_tokens\": 5698, \"json_bytes\": 22789, \"json_chars\": 22789}, \"event_type\": \"evidence.summary\", \"input_summary\": {\"bounded\": true, \"preview\": {\"evidence_records\": [{\"chunk_id\": \"2cdcceda-be8b-2372-540a-3784b708bc49\", \"chunk_ids\": [\"2cdcceda-be8b-2372-540a-3784b708bc49\"], \"document_id\": \"482538e8-13db-43e9-ad05-c159b68abb83\", \"entity\": \"crb\", \"evidence_record_id\": \"evidence-01b23797c8c84069\", \"figur","truncated_preview":true},{"payload_id":"observation:f268b42305ad4b1d:metadata.event_payload","trace_id":"2e80ae576b69ef042b452fdd433d89a7","scope":"observation","source_id":"f268b42305ad4b1d","observation_id":"f268b42305ad4b1d","field":"metadata.event_payload","name":"extraction_trace_event","kind":"event","observation_type":"EVENT","parent_observation_id":"2e6aa36630d7731a","start_time":"2026-06-06 23:25:46.268000+00:00","char_count":17908,"byte_count":17914,"rough_token_estimate":4477,"sha256":"398ac92f7b5a0e21b34c7d57098d76db2d3e74124f0d01dab03858d7186ced7a","preview":"{\"domain_pack_id\": null, \"event_id\": \"evt-097e0cbb7c9d43589b83eb1c8b798b03\", \"event_size\": {\"estimated_tokens\": 4292, \"json_bytes\": 17166, \"json_chars\": 17166}, \"event_type\": \"extraction_builder.candidate_mutation\", \"input_summary\": {}, \"metadata\": {\"agent_id\": \"Gene Extraction\", \"builder_run_id\": \"2e80ae576b69ef042b452fdd433d89a7\", \"builder_state\": \"active\", \"document_id\": \"482538e8-13db-43e9-ad05-c159b68abb83\"}, \"observation_id\": \"2e6aa36630d7731a\", \"output_summary\": {\"bounded\": true, \"preview","truncated_preview":true},{"payload_id":"observation:c01b37c41488ebe4:metadata.event_payload","trace_id":"2e80ae576b69ef042b452fdd433d89a7","scope":"observation","source_id":"c01b37c41488ebe4","observation_id":"c01b37c41488ebe4","field":"metadata.event_payload","name":"extraction_trace_event","kind":"event","observation_type":"EVENT","parent_observation_id":"2e6aa36630d7731a","start_time":"2026-06-06 23:24:50.238000+00:00","char_count":8798,"byte_count":8820,"rough_token_estimate":2200,"sha256":"5a59c10e09bd79305f92069ed28da14dcfbe696b8b109cb0effd5ec13a52772a","preview":"{\"domain_pack_id\": null, \"event_id\": \"evt-70396ad6274a43fe8a9e6a3ae28993c1\", \"event_size\": {\"estimated_tokens\": 2117, \"json_bytes\": 8467, \"json_chars\": 8467}, \"event_type\": \"specialist_tool_call.completed\", \"input_summary\": {\"bounded\": true, \"preview\": {\"durationMs\": 299, \"friendlyName\": \"Gene Extraction: Read Chunk complete\", \"isSpecialistInternal\": true, \"success\": true, \"toolCallId\": \"fc_00e5bf274aacc425006a24ac41e30881a380664d2e4a79af5f\", \"toolName\": \"read_chunk\"}, \"preview_length\": 219, \"si","truncated_preview":true},{"payload_id":"observation:9c73683a1736257d:output","trace_id":"2e80ae576b69ef042b452fdd433d89a7","scope":"observation","source_id":"9c73683a1736257d","observation_id":"9c73683a1736257d","field":"output","name":"read_section","kind":"tool","observation_type":"TOOL","parent_observation_id":"6b32448ecf81c701","start_time":"2026-06-06 23:24:22.352000+00:00","char_count":8710,"byte_count":8710,"rough_token_estimate":2178,"sha256":"cd9a4edda447eacd27610dfb520fd463ea686f2376d83864705e39abef80afa6","preview":"summary=\"Read 4 chunks from 'Methods'. Use section.source_chunks[].chunk_id with read_chunk, then pass selected evidence_spans[].span_id values to record_evidence.\" section=SectionContent(section_title='Methods', page_numbers=[1, 9], content='dy provides an important resource to make it possible. It also adds a novel possibility to quantitatively compare phenotypes of different alleles and thus contribute unravelling the function of genes.4. Experimental Section\\nImmunostaining: Drosophila eyes ","truncated_preview":true},{"payload_id":"observation:5516285369fa2114:metadata.event_payload","trace_id":"2e80ae576b69ef042b452fdd433d89a7","scope":"observation","source_id":"5516285369fa2114","observation_id":"5516285369fa2114","field":"metadata.event_payload","name":"extraction_trace_event","kind":"event","observation_type":"EVENT","parent_observation_id":"2e6aa36630d7731a","start_time":"2026-06-06 23:24:50.240000+00:00","char_count":8125,"byte_count":8129,"rough_token_estimate":2032,"sha256":"7c16f866440f442d7a71058804318f28d85c8f102b3b6192bfc89825e28227b3","preview":"{\"domain_pack_id\": null, \"event_id\": \"evt-488836cfc9274a04b7a4272892312715\", \"event_size\": {\"estimated_tokens\": 1944, \"json_bytes\": 7775, \"json_chars\": 7775}, \"event_type\": \"specialist_tool_call.completed\", \"input_summary\": {\"bounded\": true, \"preview\": {\"durationMs\": 299, \"friendlyName\": \"Gene Extraction: Read Chunk complete\", \"isSpecialistInternal\": true, \"success\": true, \"toolCallId\": \"fc_00e5bf274aacc425006a24ac41e31081a385104fa22bc6652c\", \"toolName\": \"read_chunk\"}, \"preview_length\": 219, \"si","truncated_preview":true},{"payload_id":"observation:77401d82abf439a7:metadata.event_payload","trace_id":"2e80ae576b69ef042b452fdd433d89a7","scope":"observation","source_id":"77401d82abf439a7","observation_id":"77401d82abf439a7","field":"metadata.event_payload","name":"extraction_trace_event","kind":"event","observation_type":"EVENT","parent_observation_id":"2e6aa36630d7731a","start_time":"2026-06-06 23:24:50.232000+00:00","char_count":7974,"byte_count":7974,"rough_token_estimate":1994,"sha256":"48a0deffd2bb4878cb4f710919183c57f7ee00e589f47ba2ce28359f8606233f","preview":"{\"domain_pack_id\": null, \"event_id\": \"evt-cc85bc983199451da2389788442b8b2f\", \"event_size\": {\"estimated_tokens\": 1903, \"json_bytes\": 7609, \"json_chars\": 7609}, \"event_type\": \"specialist_tool_call.completed\", \"input_summary\": {\"bounded\": true, \"preview\": {\"durationMs\": 314, \"friendlyName\": \"Gene Extraction: Read Chunk complete\", \"isSpecialistInternal\": true, \"success\": true, \"toolCallId\": \"fc_00e5bf274aacc425006a24ac41e2d881a38feeae8dfb78b215\", \"toolName\": \"read_chunk\"}, \"preview_length\": 219, \"si","truncated_preview":true},{"payload_id":"observation:cb838d05be3d8e49:metadata.event_payload","trace_id":"2e80ae576b69ef042b452fdd433d89a7","scope":"observation","source_id":"cb838d05be3d8e49","observation_id":"cb838d05be3d8e49","field":"metadata.event_payload","name":"extraction_trace_event","kind":"event","observation_type":"EVENT","parent_observation_id":"2e6aa36630d7731a","start_time":"2026-06-06 23:24:10.418000+00:00","char_count":7839,"byte_count":7843,"rough_token_estimate":1960,"sha256":"816236b6ff823f7c64d432b824f1d822cc91c3b3a0fa1c737c996543202b10ca","preview":"{\"domain_pack_id\": null, \"event_id\": \"evt-edc5d1629c364a97bec0aca3f7b90077\", \"event_size\": {\"estimated_tokens\": 1901, \"json_bytes\": 7602, \"json_chars\": 7602}, \"event_type\": \"specialist_tool_call.completed\", \"input_summary\": {\"bounded\": true, \"preview\": {\"durationMs\": 1317, \"friendlyName\": \"Gene Extraction: Search Document complete\", \"isSpecialistInternal\": true, \"success\": true, \"toolCallId\": \"fc_00e5bf274aacc425006a24ac18b6ec81a3bf5390b979ee8901\", \"toolName\": \"search_document\"}, \"preview_length","truncated_preview":true},{"payload_id":"observation:0bf92e12969adeeb:metadata.event_payload","trace_id":"2e80ae576b69ef042b452fdd433d89a7","scope":"observation","source_id":"0bf92e12969adeeb","observation_id":"0bf92e12969adeeb","field":"metadata.event_payload","name":"extraction_trace_event","kind":"event","observation_type":"EVENT","parent_observation_id":"2e6aa36630d7731a","start_time":"2026-06-06 23:24:50.236000+00:00","char_count":7708,"byte_count":7710,"rough_token_estimate":1927,"sha256":"e0bcaf6765f92f7b69d3c3533f9a574c22d59b5c5e746ee970cfec86ae936730","preview":"{\"domain_pack_id\": null, \"event_id\": \"evt-2583d994f2ad44169c3f8882323662c9\", \"event_size\": {\"estimated_tokens\": 1843, \"json_bytes\": 7371, \"json_chars\": 7371}, \"event_type\": \"specialist_tool_call.completed\", \"input_summary\": {\"bounded\": true, \"preview\": {\"durationMs\": 299, \"friendlyName\": \"Gene Extraction: Read Chunk complete\", \"isSpecialistInternal\": true, \"success\": true, \"toolCallId\": \"fc_00e5bf274aacc425006a24ac41e30081a39967445552a34f2d\", \"toolName\": \"read_chunk\"}, \"preview_length\": 219, \"si","truncated_preview":true},{"payload_id":"observation:789dd8407eba584b:metadata.event_payload","trace_id":"2e80ae576b69ef042b452fdd433d89a7","scope":"observation","source_id":"789dd8407eba584b","observation_id":"789dd8407eba584b","field":"metadata.event_payload","name":"extraction_trace_event","kind":"event","observation_type":"EVENT","parent_observation_id":"2e6aa36630d7731a","start_time":"2026-06-06 23:26:34.172000+00:00","char_count":7603,"byte_count":7603,"rough_token_estimate":1901,"sha256":"1b5fbcadc9673a0b7ce7ea079e740943f741942c3a4835742d85a1360f2d7e19","preview":"{\"domain_pack_id\": null, \"event_id\": \"evt-09ca84143d634144b7042b5a62b612d0\", \"event_size\": {\"estimated_tokens\": 1805, \"json_bytes\": 7218, \"json_chars\": 7218}, \"event_type\": \"validation.failure\", \"input_summary\": {\"bounded\": true, \"preview\": {\"error\": \"Domain-envelope validator dispatch recorded validator error(s); persisted as validator_error findings for curator review.\", \"fatal\": false, \"reason\": \"domain_validator_dispatch_error\", \"severity\": \"warning\", \"specialist\": \"Gene Extraction\", \"valida","truncated_preview":true},{"payload_id":"observation:cbc221dd3cac4df9:metadata.event_payload","trace_id":"2e80ae576b69ef042b452fdd433d89a7","scope":"observation","source_id":"cbc221dd3cac4df9","observation_id":"cbc221dd3cac4df9","field":"metadata.event_payload","name":"extraction_trace_event","kind":"event","observation_type":"EVENT","parent_observation_id":"2e6aa36630d7731a","start_time":"2026-06-06 23:24:22.388000+00:00","char_count":7564,"byte_count":7564,"rough_token_estimate":1891,"sha256":"f343c8864b654e21bcc27ebfa34e1a571114f4d83802604ce662fd8f190d616a","preview":"{\"domain_pack_id\": null, \"event_id\": \"evt-9729cbb1b1da48ca8c9552d0143ba513\", \"event_size\": {\"estimated_tokens\": 1832, \"json_bytes\": 7325, \"json_chars\": 7325}, \"event_type\": \"specialist_tool_call.completed\", \"input_summary\": {\"bounded\": true, \"preview\": {\"durationMs\": 288, \"friendlyName\": \"Gene Extraction: Read Section complete\", \"isSpecialistInternal\": true, \"success\": true, \"toolCallId\": \"fc_00e5bf274aacc425006a24ac260ca081a3bd8b601f17bf694e\", \"toolName\": \"read_section\"}, \"preview_length\": 223,","truncated_preview":true},{"payload_id":"observation:958ccd1b8b580663:metadata.event_payload","trace_id":"2e80ae576b69ef042b452fdd433d89a7","scope":"observation","source_id":"958ccd1b8b580663","observation_id":"958ccd1b8b580663","field":"metadata.event_payload","name":"extraction_trace_event","kind":"event","observation_type":"EVENT","parent_observation_id":"2e6aa36630d7731a","start_time":"2026-06-06 23:25:03.886000+00:00","char_count":7509,"byte_count":7513,"rough_token_estimate":1878,"sha256":"ed32acfe041674ba5eb2883418fd78566c5f59bae957edb8eeab4777c9c77414","preview":"{\"domain_pack_id\": null, \"event_id\": \"evt-b489779a1abe41b4b615140386b384a0\", \"event_size\": {\"estimated_tokens\": 1790, \"json_bytes\": 7159, \"json_chars\": 7159}, \"event_type\": \"specialist_tool_call.completed\", \"input_summary\": {\"bounded\": true, \"preview\": {\"durationMs\": 269, \"friendlyName\": \"Gene Extraction: Read Chunk complete\", \"isSpecialistInternal\": true, \"success\": true, \"toolCallId\": \"fc_00e5bf274aacc425006a24ac4f6a5881a39479e5bfb5041a9e\", \"toolName\": \"read_chunk\"}, \"preview_length\": 219, \"si","truncated_preview":true},{"payload_id":"observation:41f238b39e2feeaf:output","trace_id":"2e80ae576b69ef042b452fdd433d89a7","scope":"observation","source_id":"41f238b39e2feeaf","observation_id":"41f238b39e2feeaf","field":"output","name":"read_chunk","kind":"tool","observation_type":"TOOL","parent_observation_id":"6b32448ecf81c701","start_time":"2026-06-06 23:24:50.201000+00:00","char_count":7307,"byte_count":7329,"rough_token_estimate":1827,"sha256":"9784bfc1b25af680ba028b68380054402ee85fc424591ffe9ffda6b70e7954e0","preview":"summary=\"Read chunk '8d553ad9-151b-ca3d-1640-6cbc2c299ce2' from page 7. Select evidence_spans[].span_id for record_evidence.\" chunk=ChunkReadContent(chunk_id='8d553ad9-151b-ca3d-1640-6cbc2c299ce2', chunk_index=31, chunk_number=32, previous_chunk_id='95dfd7c8-fbf3-b61e-cf95-cb78fb881c52', next_chunk_id='71a90674-e2b7-8c75-976b-8414e77a1f06', page_number=7, section_title='Results and Discussion > Changes in Molecular Organization Following Abnormal PRC Development in crumbs Mutants', subsection='C","truncated_preview":true},{"payload_id":"observation:566c9056b84b3510:output","trace_id":"2e80ae576b69ef042b452fdd433d89a7","scope":"observation","source_id":"566c9056b84b3510","observation_id":"566c9056b84b3510","field":"output","name":"search_document","kind":"tool","observation_type":"TOOL","parent_observation_id":"6b32448ecf81c701","start_time":"2026-06-06 23:24:09.348000+00:00","char_count":6757,"byte_count":6762,"rough_token_estimate":1690,"sha256":"b84c3e1b52f44ae3d9e8ebd945c78baa7d3b2a195ab2a66b93b6fcd9b4fa514a","preview":"summary='Found 5 chunks' hits=[ChunkHit(chunk_id='f660824d-be9e-cd89-eace-5db25315a1d7', section_title='Abstract', page_number=1, score=0.7861146330833435, content='Absolute Quantification of Proteins in the Eye of Drosophila melanogaster\\nBharath Kumar Raghuraman, Sarita Hebbar, Mukesh Kumar, HongKee Moon, Ian Henry, Elisabeth Knust, and Andrej Shevchenko*Abstract\\nAbsolute (molar) quantification of proteins determines their molar ratios in complexes, networks, and metabolic pathways. MS Wester","truncated_preview":true},{"payload_id":"observation:fcd961cf475d3aa5:output","trace_id":"2e80ae576b69ef042b452fdd433d89a7","scope":"observation","source_id":"fcd961cf475d3aa5","observation_id":"fcd961cf475d3aa5","field":"output","name":"read_chunk","kind":"tool","observation_type":"TOOL","parent_observation_id":"6b32448ecf81c701","start_time":"2026-06-06 23:24:50.201000+00:00","char_count":6717,"byte_count":6723,"rough_token_estimate":1680,"sha256":"6dae889a428cd42db15cd423d13e3285735780f11961743af6c7d824bb57013e","preview":"summary=\"Read chunk 'b9ad96f9-6ce6-1471-eb15-168fe5cb7087' from page 1. Select evidence_spans[].span_id for record_evidence.\" chunk=ChunkReadContent(chunk_id='b9ad96f9-6ce6-1471-eb15-168fe5cb7087', chunk_index=21, chunk_number=22, previous_chunk_id='c66169a9-ebcd-35b0-408d-b3e4b55b84e8', next_chunk_id='4fe4c05a-7bb0-8b4d-5b19-3f37e95202c3', page_number=1, section_title='Results and Discussion > Molar Ratios of Proteins Involved in Phototransduction Cascade and PRC Organization', subsection='Mola","truncated_preview":true},{"payload_id":"observation:1197df362cbece10:output","trace_id":"2e80ae576b69ef042b452fdd433d89a7","scope":"observation","source_id":"1197df362cbece10","observation_id":"1197df362cbece10","field":"output","name":"read_chunk","kind":"tool","observation_type":"TOOL","parent_observation_id":"6b32448ecf81c701","start_time":"2026-06-06 23:24:50.200000+00:00","char_count":6534,"byte_count":6534,"rough_token_estimate":1634,"sha256":"c8711f2e7c886f858e548821f6891dc9e4a0d3b7389f288dc875f9fe99f6c8d9","preview":"summary=\"Read chunk 'ba0a2703-12a1-3a68-8301-0159bdd5369f' from page 1. Select evidence_spans[].span_id for record_evidence.\" chunk=ChunkReadContent(chunk_id='ba0a2703-12a1-3a68-8301-0159bdd5369f', chunk_index=25, chunk_number=26, previous_chunk_id='cc9318ff-47c9-3224-9486-7885e76ee1e4', next_chunk_id='2cdcceda-be8b-2372-540a-3784b708bc49', page_number=1, section_title='Results and Discussion > Linking Phenotype to Genotype through Molecular Abundance of Eye Proteins', subsection='Linking Phenot","truncated_preview":true},{"payload_id":"observation:29959a55f8923794:metadata.event_payload","trace_id":"2e80ae576b69ef042b452fdd433d89a7","scope":"observation","source_id":"29959a55f8923794","observation_id":"29959a55f8923794","field":"metadata.event_payload","name":"extraction_trace_event","kind":"event","observation_type":"EVENT","parent_observation_id":"2e6aa36630d7731a","start_time":"2026-06-06 23:24:50.234000+00:00","char_count":6426,"byte_count":6430,"rough_token_estimate":1607,"sha256":"4344dca94e5cc28aac35c829d55d29de81c8e30acdcb17f42311ff0f6340e8e0","preview":"{\"domain_pack_id\": null, \"event_id\": \"evt-ffe018814e1147c68d946643c2ed0225\", \"event_size\": {\"estimated_tokens\": 1531, \"json_bytes\": 6122, \"json_chars\": 6122}, \"event_type\": \"specialist_tool_call.completed\", \"input_summary\": {\"bounded\": true, \"preview\": {\"durationMs\": 312, \"friendlyName\": \"Gene Extraction: Read Chunk complete\", \"isSpecialistInternal\": true, \"success\": true, \"toolCallId\": \"fc_00e5bf274aacc425006a24ac41e2f481a39fe9fa7b4de7f633\", \"toolName\": \"read_chunk\"}, \"preview_length\": 219, \"si","truncated_preview":true}]},"token_info":{"estimated_tokens":7134,"within_budget":true,"warning":null}}