{"status":"success","data":{"source":"local","trace_id":"f597a39fa0a8fcbcb28d784c8bc1e2aa","sort":"largest","pagination":{"limit":25,"offset":0,"total_items":995,"has_next":true,"next_offset":25},"payloads":[{"payload_id":"observation:d87bed3742efb636:metadata.event_payload","trace_id":"f597a39fa0a8fcbcb28d784c8bc1e2aa","scope":"observation","source_id":"d87bed3742efb636","observation_id":"d87bed3742efb636","field":"metadata.event_payload","name":"extraction_trace_event","kind":"event","observation_type":"EVENT","parent_observation_id":"0196fd2a03cc5f78","start_time":"2026-06-06 23:28:45.326000+00:00","char_count":100364,"byte_count":100388,"rough_token_estimate":25091,"sha256":"df7d968f50dd73907148aad93a9891dbed7038d1804b6df37945f358d4282f2f","preview":"{\"domain_pack_id\": null, \"event_id\": \"evt-418b19529275440eb854a2cd3d830200\", \"event_size\": {\"estimated_tokens\": 24255, \"json_bytes\": 97018, \"json_chars\": 97018}, \"event_type\": \"specialist.summary\", \"input_summary\": {\"bounded\": true, \"preview\": {\"eventCount\": 10315, \"eventTypeCounts\": {\"agent_updated_stream_event\": 1, \"raw_response_event\": 10280, \"run_item_stream_event\": 34}, \"liveEvidenceRecordCount\": 4, \"liveEvidenceRecords\": [{\"chunk_id\": \"95b61c29-576d-7386-cc81-869bc16e79ea\", \"chunk_ids\": [\"","truncated_preview":true},{"payload_id":"observation:7aa27120abe4bd5a:output","trace_id":"f597a39fa0a8fcbcb28d784c8bc1e2aa","scope":"observation","source_id":"7aa27120abe4bd5a","observation_id":"7aa27120abe4bd5a","field":"output","name":"read_section","kind":"tool","observation_type":"TOOL","parent_observation_id":"53deaa2063200edf","start_time":"2026-06-06 23:26:57.291000+00:00","char_count":65289,"byte_count":65363,"rough_token_estimate":16323,"sha256":"3a139267a3951fade67d386ae069dd34831351ad919d8d996b3c71b4bf59a086","preview":"summary=\"Read 27 chunks from 'Results and Discussion'. Use section.source_chunks[].chunk_id with read_chunk, then pass selected evidence_spans[].span_id values to record_evidence.\" section=SectionContent(section_title='Results and Discussion', page_numbers=[1, 3, 7], content='sin mass? We answered these and other related questions by direct absolute quantification of proteins of the PT machinery and members of the Crb-complex in wild-type and genetically manipulated flies.2. Results and Discussi","truncated_preview":true},{"payload_id":"observation:0d63af5a711ae2ab:output","trace_id":"f597a39fa0a8fcbcb28d784c8bc1e2aa","scope":"observation","source_id":"0d63af5a711ae2ab","observation_id":"0d63af5a711ae2ab","field":"output","name":"read_section","kind":"tool","observation_type":"TOOL","parent_observation_id":"ea7d2934ee08c799","start_time":"2026-06-06 23:26:52.044000+00:00","char_count":65289,"byte_count":65363,"rough_token_estimate":16323,"sha256":"3a139267a3951fade67d386ae069dd34831351ad919d8d996b3c71b4bf59a086","preview":"summary=\"Read 27 chunks from 'Results and Discussion'. Use section.source_chunks[].chunk_id with read_chunk, then pass selected evidence_spans[].span_id values to record_evidence.\" section=SectionContent(section_title='Results and Discussion', page_numbers=[1, 3, 7], content='sin mass? We answered these and other related questions by direct absolute quantification of proteins of the PT machinery and members of the Crb-complex in wild-type and genetically manipulated flies.2. Results and Discussi","truncated_preview":true},{"payload_id":"observation:d02a53601f3a2391:metadata.agent_config","trace_id":"f597a39fa0a8fcbcb28d784c8bc1e2aa","scope":"observation","source_id":"d02a53601f3a2391","observation_id":"d02a53601f3a2391","field":"metadata.agent_config","name":"query_supervisor_config","kind":"event","observation_type":"EVENT","parent_observation_id":"0196fd2a03cc5f78","start_time":"2026-06-06 23:26:42.431000+00:00","char_count":41877,"byte_count":41877,"rough_token_estimate":10470,"sha256":"fe6ab68e2b5b1051650db8c0bf34453cbcec8ef1d0512303964225b209be5123","preview":"{\"agent_name\": \"Query Supervisor\", \"instructions\": \"## Platform Runtime Contract\\nThese backend-owned instructions are part of the system-agent contract.\\nEditable prompts may add task and domain guidance, but must not override locked runtime,\\nschema, tool, audit, or safety requirements.\\n\\n<role>\\nYou are the Query Supervisor for biological curation: the router and orchestrator\\nwho sends each curator request to the right installed specialist, preserves the\\nscientific intent in every handoff,","truncated_preview":true},{"payload_id":"observation:2b4feb2307ebdee0:output","trace_id":"f597a39fa0a8fcbcb28d784c8bc1e2aa","scope":"observation","source_id":"2b4feb2307ebdee0","observation_id":"2b4feb2307ebdee0","field":"output","name":"response","kind":"model","observation_type":"GENERATION","parent_observation_id":"be2079712a5d0716","start_time":"2026-06-06 23:28:30.391000+00:00","char_count":38052,"byte_count":38066,"rough_token_estimate":9513,"sha256":"91d97e91d0487dc3a293bc8bb7b4db3ae9cf3c705a0cd4002d67ea5588558e0f","preview":"{\"background\": false, \"completed_at\": 1780788515, \"conversation\": null, \"created_at\": 1780788510, \"error\": null, \"frequency_penalty\": 0, \"id\": \"resp_0b8cb24374600181006a24ad1e72e4819182eb56c469ec518b\", \"incomplete_details\": null, \"instructions\": \"## Platform Runtime Contract\\nThese backend-owned instructions are part of the system-agent contract.\\nEditable prompts may add task and domain guidance, but must not override locked runtime,\\nschema, tool, audit, or safety requirements.\\n\\n## Generated","truncated_preview":true},{"payload_id":"observation:40e04eaf31c31632:output","trace_id":"f597a39fa0a8fcbcb28d784c8bc1e2aa","scope":"observation","source_id":"40e04eaf31c31632","observation_id":"40e04eaf31c31632","field":"output","name":"response","kind":"model","observation_type":"GENERATION","parent_observation_id":"98a6a064895ef1bb","start_time":"2026-06-06 23:26:42.443000+00:00","char_count":37995,"byte_count":37997,"rough_token_estimate":9499,"sha256":"6a564f3f3ed59df7e6b4718649592f2d967e908d8b86acc70ee23c2a8118b22e","preview":"{\"background\": false, \"completed_at\": 1780788407, \"conversation\": null, \"created_at\": 1780788402, \"error\": null, \"frequency_penalty\": 0, \"id\": \"resp_03b6b000056f4dbe006a24acb2c3d4819d947f47b008757fe0\", \"incomplete_details\": null, \"instructions\": \"## Platform Runtime Contract\\nThese backend-owned instructions are part of the system-agent contract.\\nEditable prompts may add task and domain guidance, but must not override locked runtime,\\nschema, tool, audit, or safety requirements.\\n\\n<role>\\nYou ","truncated_preview":true},{"payload_id":"observation:d02c35d092df74d6:output","trace_id":"f597a39fa0a8fcbcb28d784c8bc1e2aa","scope":"observation","source_id":"d02c35d092df74d6","observation_id":"d02c35d092df74d6","field":"output","name":"response","kind":"model","observation_type":"GENERATION","parent_observation_id":"98a6a064895ef1bb","start_time":"2026-06-06 23:28:45.335000+00:00","char_count":37785,"byte_count":37787,"rough_token_estimate":9447,"sha256":"5300466f74219e74da745e1d0ba7b40d182c08d4bd0ed1a1a68b1d20ebbe3ae9","preview":"{\"background\": false, \"completed_at\": 1780788531, \"conversation\": null, \"created_at\": 1780788525, \"error\": null, \"frequency_penalty\": 0, \"id\": \"resp_03b6b000056f4dbe006a24ad2d5eb4819d884fe1a477eea3cc\", \"incomplete_details\": null, \"instructions\": \"## Platform Runtime Contract\\nThese backend-owned instructions are part of the system-agent contract.\\nEditable prompts may add task and domain guidance, but must not override locked runtime,\\nschema, tool, audit, or safety requirements.\\n\\n<role>\\nYou ","truncated_preview":true},{"payload_id":"observation:17f823feafe36642:output","trace_id":"f597a39fa0a8fcbcb28d784c8bc1e2aa","scope":"observation","source_id":"17f823feafe36642","observation_id":"17f823feafe36642","field":"output","name":"response","kind":"model","observation_type":"GENERATION","parent_observation_id":"be2079712a5d0716","start_time":"2026-06-06 23:28:25.114000+00:00","char_count":37521,"byte_count":37527,"rough_token_estimate":9381,"sha256":"74d20fe0cd831fe7e62254e9db759df6c8fd54f9b5f5a8b2ea626b510405a967","preview":"{\"background\": false, \"completed_at\": 1780788510, \"conversation\": null, \"created_at\": 1780788505, \"error\": null, \"frequency_penalty\": 0, \"id\": \"resp_0b8cb24374600181006a24ad1929fc81919d69aebadba86d81\", \"incomplete_details\": null, \"instructions\": \"## Platform Runtime Contract\\nThese backend-owned instructions are part of the system-agent contract.\\nEditable prompts may add task and domain guidance, but must not override locked runtime,\\nschema, tool, audit, or safety requirements.\\n\\n## Generated","truncated_preview":true},{"payload_id":"observation:150409ce6d29d3b3:output","trace_id":"f597a39fa0a8fcbcb28d784c8bc1e2aa","scope":"observation","source_id":"150409ce6d29d3b3","observation_id":"150409ce6d29d3b3","field":"output","name":"response","kind":"model","observation_type":"GENERATION","parent_observation_id":"be2079712a5d0716","start_time":"2026-06-06 23:28:35.275000+00:00","char_count":37495,"byte_count":37501,"rough_token_estimate":9374,"sha256":"c4744b4a818830322cb805c488cdbd4c2b9b53bcc089f81f5d832256904fdc70","preview":"{\"background\": false, \"completed_at\": 1780788518, \"conversation\": null, \"created_at\": 1780788515, \"error\": null, \"frequency_penalty\": 0, \"id\": \"resp_0b8cb24374600181006a24ad2353a48191a4b872cf8a2da21b\", \"incomplete_details\": null, \"instructions\": \"## Platform Runtime Contract\\nThese backend-owned instructions are part of the system-agent contract.\\nEditable prompts may add task and domain guidance, but must not override locked runtime,\\nschema, tool, audit, or safety requirements.\\n\\n## Generated","truncated_preview":true},{"payload_id":"observation:2651906eab3656c1:metadata.event_payload","trace_id":"f597a39fa0a8fcbcb28d784c8bc1e2aa","scope":"observation","source_id":"2651906eab3656c1","observation_id":"2651906eab3656c1","field":"metadata.event_payload","name":"extraction_trace_event","kind":"event","observation_type":"EVENT","parent_observation_id":"0196fd2a03cc5f78","start_time":"2026-06-06 23:28:01.397000+00:00","char_count":35472,"byte_count":35478,"rough_token_estimate":8868,"sha256":"7d5a6b0300f8165cefc833d03c257c4ece473982200c7aa280c5d121cecfde8b","preview":"{\"domain_pack_id\": null, \"event_id\": \"evt-0dc0f00245c34c2188f3c858323a3bb1\", \"event_size\": {\"estimated_tokens\": 8523, \"json_bytes\": 34090, \"json_chars\": 34090}, \"event_type\": \"specialist_tool_call.started\", \"input_summary\": {\"bounded\": true, \"preview\": {\"result\": {\"ambiguities\": [], \"answer\": \"This paper asks how the molar abundance and stoichiometry of phototransduction and Crumbs-complex/rhabdomere-organizing proteins relate to Drosophila melanogaster eye organization and to crumbs mutant phen","truncated_preview":true},{"payload_id":"observation:52e48eba174ead58:metadata.event_payload","trace_id":"f597a39fa0a8fcbcb28d784c8bc1e2aa","scope":"observation","source_id":"52e48eba174ead58","observation_id":"52e48eba174ead58","field":"metadata.event_payload","name":"extraction_trace_event","kind":"event","observation_type":"EVENT","parent_observation_id":"0196fd2a03cc5f78","start_time":"2026-06-06 23:26:52.063000+00:00","char_count":34856,"byte_count":34888,"rough_token_estimate":8714,"sha256":"2e9f197419085f8034ebca691dfc2802bb7ccce3d3beea29b5b8aa61d023a67c","preview":"{\"domain_pack_id\": null, \"event_id\": \"evt-81bc54061503409591e2d5b30c6d4e07\", \"event_size\": {\"estimated_tokens\": 8618, \"json_bytes\": 34470, \"json_chars\": 34470}, \"event_type\": \"specialist_tool_call.completed\", \"input_summary\": {\"bounded\": true, \"preview\": {\"durationMs\": 173, \"friendlyName\": \"General PDF Extraction: Read Section complete\", \"isSpecialistInternal\": true, \"success\": true, \"toolCallId\": \"fc_0caf18da91f9cdbd006a24acbbd72481a0a61933ce0aedb59d\", \"toolName\": \"read_section\"}, \"preview_leng","truncated_preview":true},{"payload_id":"observation:7e668378740b170f:metadata.event_payload","trace_id":"f597a39fa0a8fcbcb28d784c8bc1e2aa","scope":"observation","source_id":"7e668378740b170f","observation_id":"7e668378740b170f","field":"metadata.event_payload","name":"extraction_trace_event","kind":"event","observation_type":"EVENT","parent_observation_id":"0196fd2a03cc5f78","start_time":"2026-06-06 23:26:57.304000+00:00","char_count":34842,"byte_count":34874,"rough_token_estimate":8711,"sha256":"c13fa620fe9fd58a7ea26343eea438cda07e33ab0a2ef0850d323c1312fc2608","preview":"{\"domain_pack_id\": null, \"event_id\": \"evt-8d0b27344d5242abb972b91306f31a51\", \"event_size\": {\"estimated_tokens\": 8614, \"json_bytes\": 34456, \"json_chars\": 34456}, \"event_type\": \"specialist_tool_call.completed\", \"input_summary\": {\"bounded\": true, \"preview\": {\"durationMs\": 154, \"friendlyName\": \"Gene Extraction: Read Section complete\", \"isSpecialistInternal\": true, \"success\": true, \"toolCallId\": \"fc_04dab73953d3e0c3006a24acc1092c819cb2fc7cdb00e20812\", \"toolName\": \"read_section\"}, \"preview_length\": 22","truncated_preview":true},{"payload_id":"observation:fe06da630cf2994c:output","trace_id":"f597a39fa0a8fcbcb28d784c8bc1e2aa","scope":"observation","source_id":"fe06da630cf2994c","observation_id":"fe06da630cf2994c","field":"output","name":"response","kind":"model","observation_type":"GENERATION","parent_observation_id":"be2079712a5d0716","start_time":"2026-06-06 23:28:20.296000+00:00","char_count":34710,"byte_count":34712,"rough_token_estimate":8678,"sha256":"39a5e39115f8713e1682c325b335bae89a87c535bb4f162ec10efa9b37e14176","preview":"{\"background\": false, \"completed_at\": 1780788502, \"conversation\": null, \"created_at\": 1780788500, \"error\": null, \"frequency_penalty\": 0, \"id\": \"resp_0b8cb24374600181006a24ad1458708191842625d78b51dc01\", \"incomplete_details\": null, \"instructions\": \"## Platform Runtime Contract\\nThese backend-owned instructions are part of the system-agent contract.\\nEditable prompts may add task and domain guidance, but must not override locked runtime,\\nschema, tool, audit, or safety requirements.\\n\\n## Generated","truncated_preview":true},{"payload_id":"observation:3e1472e63801823a:output","trace_id":"f597a39fa0a8fcbcb28d784c8bc1e2aa","scope":"observation","source_id":"3e1472e63801823a","observation_id":"3e1472e63801823a","field":"output","name":"response","kind":"model","observation_type":"GENERATION","parent_observation_id":"be2079712a5d0716","start_time":"2026-06-06 23:28:15.314000+00:00","char_count":34651,"byte_count":34655,"rough_token_estimate":8663,"sha256":"01fc781621617b7f6c9103320c481e3437e8edbf4cb8987baaa6089db126e376","preview":"{\"background\": false, \"completed_at\": 1780788497, \"conversation\": null, \"created_at\": 1780788495, \"error\": null, \"frequency_penalty\": 0, \"id\": \"resp_0b8cb24374600181006a24ad0f5d9c819188387515f0332938\", \"incomplete_details\": null, \"instructions\": \"## Platform Runtime Contract\\nThese backend-owned instructions are part of the system-agent contract.\\nEditable prompts may add task and domain guidance, but must not override locked runtime,\\nschema, tool, audit, or safety requirements.\\n\\n## Generated","truncated_preview":true},{"payload_id":"observation:1a21f872261dd72a:output","trace_id":"f597a39fa0a8fcbcb28d784c8bc1e2aa","scope":"observation","source_id":"1a21f872261dd72a","observation_id":"1a21f872261dd72a","field":"output","name":"response","kind":"model","observation_type":"GENERATION","parent_observation_id":"be2079712a5d0716","start_time":"2026-06-06 23:28:09.558000+00:00","char_count":34179,"byte_count":34181,"rough_token_estimate":8545,"sha256":"c1686c8ace2621fddab186a49690a21731df84d216b5a5e57f82973dba8233d9","preview":"{\"background\": false, \"completed_at\": 1780788491, \"conversation\": null, \"created_at\": 1780788490, \"error\": null, \"frequency_penalty\": 0, \"id\": \"resp_0b8cb24374600181006a24ad0a1cd88191bc90d1b2f7284bee\", \"incomplete_details\": null, \"instructions\": \"## Platform Runtime Contract\\nThese backend-owned instructions are part of the system-agent contract.\\nEditable prompts may add task and domain guidance, but must not override locked runtime,\\nschema, tool, audit, or safety requirements.\\n\\n## Generated","truncated_preview":true},{"payload_id":"observation:e994d149b39c6dae:metadata.event_payload","trace_id":"f597a39fa0a8fcbcb28d784c8bc1e2aa","scope":"observation","source_id":"e994d149b39c6dae","observation_id":"e994d149b39c6dae","field":"metadata.event_payload","name":"extraction_trace_event","kind":"event","observation_type":"EVENT","parent_observation_id":"0196fd2a03cc5f78","start_time":"2026-06-06 23:28:51.431000+00:00","char_count":30110,"byte_count":30118,"rough_token_estimate":7528,"sha256":"189a4b7dd26d507b755d2e6a13360619d7d9b68bb6d0f81d6ac30d1692575c46","preview":"{\"domain_pack_id\": null, \"event_id\": \"evt-c91c585424f241899ce479f57e12df0a\", \"event_size\": {\"estimated_tokens\": 7260, \"json_bytes\": 29039, \"json_chars\": 29039}, \"event_type\": \"evidence.summary\", \"input_summary\": {\"bounded\": true, \"preview\": {\"evidence_records\": [{\"chunk_id\": \"ba0a2703-12a1-3a68-8301-0159bdd5369f\", \"chunk_ids\": [\"ba0a2703-12a1-3a68-8301-0159bdd5369f\"], \"document_id\": \"482538e8-13db-43e9-ad05-c159b68abb83\", \"entity\": \"crumbs (crb)\", \"evidence_record_id\": \"evidence-38cad1d60af52dbc","truncated_preview":true},{"payload_id":"observation:58b4c4be32882db4:metadata.event_payload","trace_id":"f597a39fa0a8fcbcb28d784c8bc1e2aa","scope":"observation","source_id":"58b4c4be32882db4","observation_id":"58b4c4be32882db4","field":"metadata.event_payload","name":"extraction_trace_event","kind":"event","observation_type":"EVENT","parent_observation_id":"0196fd2a03cc5f78","start_time":"2026-06-06 23:28:38.704000+00:00","char_count":27358,"byte_count":27366,"rough_token_estimate":6840,"sha256":"808654d4454f03a7ff3730f54aaf7475619e6023e3e86653a89044106d12d910","preview":"{\"domain_pack_id\": null, \"event_id\": \"evt-e4b80877e22d43e191f4e4a67f6a48dc\", \"event_size\": {\"estimated_tokens\": 6570, \"json_bytes\": 26279, \"json_chars\": 26279}, \"event_type\": \"specialist.summary\", \"input_summary\": {\"bounded\": true, \"preview\": {\"eventCount\": 1023, \"eventTypeCounts\": {\"agent_updated_stream_event\": 1, \"raw_response_event\": 986, \"run_item_stream_event\": 36}, \"liveEvidenceRecordCount\": 1, \"liveEvidenceRecords\": [{\"chunk_id\": \"ba0a2703-12a1-3a68-8301-0159bdd5369f\", \"chunk_ids\": [\"ba0a","truncated_preview":true},{"payload_id":"observation:ce295a3a5e36801f:metadata.event_payload","trace_id":"f597a39fa0a8fcbcb28d784c8bc1e2aa","scope":"observation","source_id":"ce295a3a5e36801f","observation_id":"ce295a3a5e36801f","field":"metadata.event_payload","name":"extraction_trace_event","kind":"event","observation_type":"EVENT","parent_observation_id":"0196fd2a03cc5f78","start_time":"2026-06-06 23:28:45.315000+00:00","char_count":25756,"byte_count":25764,"rough_token_estimate":6439,"sha256":"5350842f18abe1509a5d9b6eba68e1661af19c37c579fd7e1ab3c1354f7ffec3","preview":"{\"domain_pack_id\": null, \"event_id\": \"evt-3d25a9f037bd4606a3be15026d24fe0c\", \"event_size\": {\"estimated_tokens\": 6210, \"json_bytes\": 24839, \"json_chars\": 24839}, \"event_type\": \"evidence.summary\", \"input_summary\": {\"bounded\": true, \"preview\": {\"evidence_records\": [{\"chunk_id\": \"95b61c29-576d-7386-cc81-869bc16e79ea\", \"chunk_ids\": [\"95b61c29-576d-7386-cc81-869bc16e79ea\"], \"document_id\": \"482538e8-13db-43e9-ad05-c159b68abb83\", \"entity\": \"main biological question and model system\", \"evidence_record_id","truncated_preview":true},{"payload_id":"observation:150409ce6d29d3b3:input","trace_id":"f597a39fa0a8fcbcb28d784c8bc1e2aa","scope":"observation","source_id":"150409ce6d29d3b3","observation_id":"150409ce6d29d3b3","field":"input","name":"response","kind":"model","observation_type":"GENERATION","parent_observation_id":"be2079712a5d0716","start_time":"2026-06-06 23:28:35.275000+00:00","char_count":20673,"byte_count":20695,"rough_token_estimate":5169,"sha256":"dcb39f719fd607a1f13af34f2bb1bbf3ea51718eccb2bcb8281fed00f64c385a","preview":"[{\"content\": \"{\\\"evidence_summary\\\": {\\\"evidence_count\\\": 0}, \\\"expected_result_fields\\\": {\\\"curie\\\": \\\"primary_external_id\\\", \\\"symbol\\\": \\\"gene_symbol\\\", \\\"taxon\\\": \\\"taxon\\\"}, \\\"request_id\\\": \\\"domain-validation:3eb4ee99b909cf29dcde6de4b1d52c6923a67962d6eaf4db7d7d42d0bf850486\\\", \\\"runtime_compaction\\\": {\\\"canonical_identity_restored_by\\\": \\\"finalize_validator_result\\\", \\\"input_values_source\\\": \\\"selected_inputs\\\", \\\"omitted_fields\\\": [\\\"input_selectors\\\", \\\"target.input_values\\\", \\\"evidence\\\"","truncated_preview":true},{"payload_id":"observation:310d99cb6ffa417b:input","trace_id":"f597a39fa0a8fcbcb28d784c8bc1e2aa","scope":"observation","source_id":"310d99cb6ffa417b","observation_id":"310d99cb6ffa417b","field":"input","name":"finalize_pdf_extraction","kind":"tool","observation_type":"TOOL","parent_observation_id":"ea7d2934ee08c799","start_time":"2026-06-06 23:28:01.542000+00:00","char_count":17217,"byte_count":17221,"rough_token_estimate":4305,"sha256":"778346af2129126122a1ebd39f31fedc98ac381653e2f9e93e3fdd8badac9dd7","preview":"{\"result\": {\"ambiguities\": [], \"answer\": \"This paper asks how the molar abundance and stoichiometry of phototransduction and Crumbs-complex/rhabdomere-organizing proteins relate to Drosophila melanogaster eye organization and to crumbs mutant phenotypes. Using wild-type fly eyes and crb mutant alleles as the model system, the authors applied an MS Western/GeLC-MS/MS workflow with an isotopically labeled chimeric protein standard covering 43 proteins to quantify absolute protein amounts and ratio","truncated_preview":true},{"payload_id":"observation:cb18c91cb4681c1d:metadata.event_payload","trace_id":"f597a39fa0a8fcbcb28d784c8bc1e2aa","scope":"observation","source_id":"cb18c91cb4681c1d","observation_id":"cb18c91cb4681c1d","field":"metadata.event_payload","name":"extraction_trace_event","kind":"event","observation_type":"EVENT","parent_observation_id":"0196fd2a03cc5f78","start_time":"2026-06-06 23:28:45.311000+00:00","char_count":16164,"byte_count":16166,"rough_token_estimate":4041,"sha256":"84ae5f420e6da0e28ad4f57e4ac336eb826ccd389f0cbf40d0ac989658fb1ea8","preview":"{\"domain_pack_id\": null, \"event_id\": \"evt-be0a2e4eff18435f9553055326034167\", \"event_size\": {\"estimated_tokens\": 3874, \"json_bytes\": 15496, \"json_chars\": 15496}, \"event_type\": \"extraction_builder.candidate_mutation\", \"input_summary\": {}, \"metadata\": {\"agent_id\": \"General PDF Extraction\", \"builder_run_id\": \"f597a39fa0a8fcbcb28d784c8bc1e2aa\", \"builder_state\": \"active\", \"document_id\": \"482538e8-13db-43e9-ad05-c159b68abb83\"}, \"observation_id\": \"0196fd2a03cc5f78\", \"output_summary\": {\"bounded\": true, \"","truncated_preview":true},{"payload_id":"observation:2b4feb2307ebdee0:input","trace_id":"f597a39fa0a8fcbcb28d784c8bc1e2aa","scope":"observation","source_id":"2b4feb2307ebdee0","observation_id":"2b4feb2307ebdee0","field":"input","name":"response","kind":"model","observation_type":"GENERATION","parent_observation_id":"be2079712a5d0716","start_time":"2026-06-06 23:28:30.391000+00:00","char_count":12644,"byte_count":12650,"rough_token_estimate":3161,"sha256":"e8ebc3d68203df9639519d808c0f8bd7dd55fa229c6e57ea467b79e2a91ccc6e","preview":"[{\"content\": \"{\\\"evidence_summary\\\": {\\\"evidence_count\\\": 0}, \\\"expected_result_fields\\\": {\\\"curie\\\": \\\"primary_external_id\\\", \\\"symbol\\\": \\\"gene_symbol\\\", \\\"taxon\\\": \\\"taxon\\\"}, \\\"request_id\\\": \\\"domain-validation:3eb4ee99b909cf29dcde6de4b1d52c6923a67962d6eaf4db7d7d42d0bf850486\\\", \\\"runtime_compaction\\\": {\\\"canonical_identity_restored_by\\\": \\\"finalize_validator_result\\\", \\\"input_values_source\\\": \\\"selected_inputs\\\", \\\"omitted_fields\\\": [\\\"input_selectors\\\", \\\"target.input_values\\\", \\\"evidence\\\"","truncated_preview":true},{"payload_id":"observation:0de1884f4d95ace1:metadata.event_payload","trace_id":"f597a39fa0a8fcbcb28d784c8bc1e2aa","scope":"observation","source_id":"0de1884f4d95ace1","observation_id":"0de1884f4d95ace1","field":"metadata.event_payload","name":"extraction_trace_event","kind":"event","observation_type":"EVENT","parent_observation_id":"0196fd2a03cc5f78","start_time":"2026-06-06 23:28:06.548000+00:00","char_count":10874,"byte_count":10882,"rough_token_estimate":2719,"sha256":"1ac059fdb132e1dfd75e0afe6eb223e7acf0cd070690cc9c91d2e01b3c14649c","preview":"{\"domain_pack_id\": \"gene\", \"event_id\": \"evt-c490eba17a644ce1a84b14704cc36665\", \"event_size\": {\"estimated_tokens\": 2587, \"json_bytes\": 10346, \"json_chars\": 10346}, \"event_type\": \"gene_materializer.completed\", \"input_summary\": {\"bounded\": true, \"preview\": {\"candidate_ids\": [\"gene-candidate-1\"]}, \"preview_length\": 39, \"size\": {\"estimated_tokens\": 10, \"json_bytes\": 38, \"json_chars\": 38, \"kind\": \"object\", \"top_level_keys\": 1}}, \"metadata\": {\"action\": \"materialize\", \"builder_run_id\": \"f597a39fa0a8fcbc","truncated_preview":true},{"payload_id":"observation:3e69e0d2af771d50:metadata.event_payload","trace_id":"f597a39fa0a8fcbcb28d784c8bc1e2aa","scope":"observation","source_id":"3e69e0d2af771d50","observation_id":"3e69e0d2af771d50","field":"metadata.event_payload","name":"extraction_trace_event","kind":"event","observation_type":"EVENT","parent_observation_id":"0196fd2a03cc5f78","start_time":"2026-06-06 23:26:55.665000+00:00","char_count":8414,"byte_count":8416,"rough_token_estimate":2104,"sha256":"72ae439773af28a3127f9b79e953fa7b0da6b4de416afa719f0087b01fdd0d09","preview":"{\"domain_pack_id\": null, \"event_id\": \"evt-f56b3e540c4c4cbb9f9fd6b6f97ca624\", \"event_size\": {\"estimated_tokens\": 2011, \"json_bytes\": 8041, \"json_chars\": 8041}, \"event_type\": \"specialist_tool_call.completed\", \"input_summary\": {\"bounded\": true, \"preview\": {\"durationMs\": 269, \"friendlyName\": \"General PDF Extraction: Read Chunk complete\", \"isSpecialistInternal\": true, \"success\": true, \"toolCallId\": \"fc_0caf18da91f9cdbd006a24acbf573881a0b5049263fa090ca5\", \"toolName\": \"read_chunk\"}, \"preview_length\": 2","truncated_preview":true},{"payload_id":"observation:17f823feafe36642:input","trace_id":"f597a39fa0a8fcbcb28d784c8bc1e2aa","scope":"observation","source_id":"17f823feafe36642","observation_id":"17f823feafe36642","field":"input","name":"response","kind":"model","observation_type":"GENERATION","parent_observation_id":"be2079712a5d0716","start_time":"2026-06-06 23:28:25.114000+00:00","char_count":8283,"byte_count":8285,"rough_token_estimate":2071,"sha256":"58ff88a9716f078f94407854445fda838976b28b0a7bcdf012d3b415985cc0dd","preview":"[{\"content\": \"{\\\"evidence_summary\\\": {\\\"evidence_count\\\": 0}, \\\"expected_result_fields\\\": {\\\"curie\\\": \\\"primary_external_id\\\", \\\"symbol\\\": \\\"gene_symbol\\\", \\\"taxon\\\": \\\"taxon\\\"}, \\\"request_id\\\": \\\"domain-validation:3eb4ee99b909cf29dcde6de4b1d52c6923a67962d6eaf4db7d7d42d0bf850486\\\", \\\"runtime_compaction\\\": {\\\"canonical_identity_restored_by\\\": \\\"finalize_validator_result\\\", \\\"input_values_source\\\": \\\"selected_inputs\\\", \\\"omitted_fields\\\": [\\\"input_selectors\\\", \\\"target.input_values\\\", \\\"evidence\\\"","truncated_preview":true}]},"token_info":{"estimated_tokens":7111,"within_budget":true,"warning":null}}